{
    "bsonType": "object",
    "required": [ "id", "channel", "title", "date", "likeCount", "dislikeCount", "viewCount" ],
    "properties": {
        "id": {
            "bsonType": "string",
            "description": "must be a string and is required"
        },
        "channel": {
            "bsonType": "string",
            "description": "must be a string and is required"
        },
        "title": {
            "bsonType": "string",
            "description": "must be a string and is required"
        },
        "date": {
            "bsonType": "date",
            "description": "must be a date and is required"
        },
        "likeCount": {
            "bsonType": "int",
            "description": "must be an int and is required"
        },
        "dislikeCount": {
            "bsonType": "int",
            "description": "must be an int and is required"
        },
        "viewCount": {
            "bsonType": "int",
            "description": "must be an int and is required"
        }
    }
}